{
  "images" : [
    {
      "idiom" : "universal",
      "scale" : "1x",
      "filename" : "demo slider 640-960 2.png"
    },
    {
      "idiom" : "universal",
      "scale" : "2x",
      "filename" : "demo slider 640-1136 2.png"
    },
    {
      "idiom" : "universal",
      "scale" : "3x",
      "filename" : "demo slider 750-1134 2.png"
    }
  ],
  "info" : {
    "version" : 1,
    "author" : "xcode"
  }
}